Does Obamacare affect health positively?
…
Next Ill look at the states with the highest proportion of insured residents unable to see the doctor due to cost.

## Source: local data frame [53 x 2]
## Groups: State [53]
## 
##             State Doctor.too.costly
##            <fctr>             <dbl>
## 1            Guam         0.1760508
## 2     Puerto Rico         0.1497283
## 3         Florida         0.1490275
## 4     Mississippi         0.1482208
## 5         Georgia         0.1315734
## 6      New Mexico         0.1294214
## 7        Kentucky         0.1280133
## 8       Louisiana         0.1280030
## 9  South Carolina         0.1274182
## 10       Arkansas         0.1258306
## # ... with 43 more rows
…
Visually the correlation seems pretty high - as the uninsured rate increases, so does the states proportion of residents unable to see the doctor due to cost. Maybe this is a flawed comparison: if a state has a high number of uninsured residents, then most likely a large proportion of them will not be able to see the doctor, unless the median income is really high  correct? Im not 100% sure on the validity of this graph, so Ill keep it here  it is visually compelling.

Research question 3: Finally, is there an association between insurance and the flu vaccine? Ill answer that with a contingency table of coverage and getting the flu shot within the last 12 months (flushot6):

##                                   
##                                          Yes        No
##   Have health care coverage        0.4199200 0.5800800
##   Do not have health care coverage 0.1963255 0.8036745

About 42% of insured residents got the shot. This shows that the two variables are associated (if not, we would expect the rate to be more like 50%). Its also interesting to note that about 20% of uninsured residents got the shot.

What states have the lowest proportion of insured residents that got the flu shot within the last 12 months?

## Source: local data frame [53 x 2]
## Groups: State [53]
## 
##          State Shot.proportion
##         <fctr>           <dbl>
## 1  Puerto Rico       0.1700168
## 2      Florida       0.3285757
## 3      Arizona       0.3351092
## 4         Guam       0.3359649
## 5       Nevada       0.3461228
## 6        Idaho       0.3473326
## 7    Wisconsin       0.3660977
## 8   New Jersey       0.3718763
## 9       Alaska       0.3724138
## 10     Indiana       0.3762512
## # ... with 43 more rows
…
