Exploring the BRFSS data
…
cost.states <- brfss2013 %>%
    select(Coverage = X_hcvu651, Cost = medcost, State = X_state) %>%
    filter(Coverage == 'Have health care coverage') %>%
    select(-Coverage) %>%
    na.omit %>%
    group_by(State, Cost) %>%
    summarise(n = n()) %>%
    mutate(Doctor.too.costly = n / sum(n)) %>%
    filter(Cost == 'Yes') %>%
    select(State, Doctor.too.costly) %>%
    arrange(-Doctor.too.costly)

cost.states

## Source: local data frame [53 x 2]
## Groups: State [53]
## 
##             State Doctor.too.costly
##            <fctr>             <dbl>
## 1            Guam         0.1760508
## 2     Puerto Rico         0.1497283
## 3         Florida         0.1490275
## 4     Mississippi         0.1482208
## 5         Georgia         0.1315734
## 6      New Mexico         0.1294214
## 7        Kentucky         0.1280133
## 8       Louisiana         0.1280030
## 9  South Carolina         0.1274182
## 10       Arkansas         0.1258306
## # ... with 43 more rows
…
flu.states <- brfss2013 %>%
    select(Coverage = X_hcvu651, Shot = flushot6, State = X_state) %>%
    filter(Coverage == 'Have health care coverage') %>%
    select(-Coverage) %>%
    na.omit %>%
    group_by(State, Shot) %>%
    summarise(n = n()) %>%
    mutate(Shot.proportion = n / sum(n)) %>%
    filter(Shot == 'Yes') %>%
    select(State, Shot.proportion) %>%
    arrange(Shot.proportion)

flu.states

## Source: local data frame [53 x 2]
## Groups: State [53]
## 
##          State Shot.proportion
##         <fctr>           <dbl>
## 1  Puerto Rico       0.1700168
## 2      Florida       0.3285757
## 3      Arizona       0.3351092
## 4         Guam       0.3359649
## 5       Nevada       0.3461228
## 6        Idaho       0.3473326
## 7    Wisconsin       0.3660977
## 8   New Jersey       0.3718763
## 9       Alaska       0.3724138
## 10     Indiana       0.3762512
## # ... with 43 more rows
…
